src/tb_.vcd
$date
	Sun Jul 27 17:28:34 2025
$end
$version
	Icarus Verilog
$end
$timescale
	1s
$end
$scope module tb $end
$var wire 16 ! pc [15:0] $end
$var reg 1 " clk $end
$var reg 1 # rst $end
$scope module mips $end
$var wire 1 " clk $end
$var wire 16 $ pc [15:0] $end
$var wire 1 # rst $end
$var wire 1 % zero $end
$var wire 2 & writeAdd [1:0] $end
$var wire 1 ' we $end
$var wire 16 ( wdata [15:0] $end
$var wire 1 ) store $end
$var wire 16 * signedIM [15:0] $end
$var wire 1 + regsrc $end
$var wire 1 , ready $end
$var wire 2 - readAdd2 [1:0] $end
$var wire 2 . readAdd1 [1:0] $end
$var wire 16 / rdata2 [15:0] $end
$var wire 16 0 rdata1 [15:0] $end
$var wire 1 1 memWrite $end
$var wire 1 2 memRead $end
$var wire 16 3 memDataOut [15:0] $end
$var wire 9 4 immediate [8:0] $end
$var wire 1 5 carry $end
$var wire 16 6 alusrcB [15:0] $end
$var wire 1 7 alusrc $end
$var wire 16 8 address [15:0] $end
$var wire 1 9 IRpdate $end
$var wire 16 : ALU_result [15:0] $end
$var wire 2 ; ALUOP [1:0] $end
$var reg 16 < MDB [15:0] $end
$var reg 16 = PC [15:0] $end
$var reg 16 > instruction [15:0] $end
$scope module alu $end
$var wire 16 ? B [15:0] $end
$var wire 1 " clk $end
$var wire 1 % zero $end
$var wire 32 @ reslow [31:0] $end
$var wire 16 A resSUB [15:0] $end
$var wire 16 B resADD [15:0] $end
$var wire 16 C negB [15:0] $end
$var wire 16 D negA [15:0] $end
$var wire 32 E divres [31:0] $end
$var wire 1 F _CARRY $end
$var wire 1 G _BORROW $end
$var wire 2 H ALUOP [1:0] $end
$var wire 16 I A [15:0] $end
$var reg 1 J Cin $end
$var reg 16 K Result [15:0] $end
$var reg 1 5 carry $end
$var reg 5 L counter [4:0] $end
$var reg 16 M divA [15:0] $end
$var reg 16 N divB [15:0] $end
$var reg 16 O multiplicand [15:0] $end
$var reg 16 P multiplier [15:0] $end
$var reg 1 Q start $end
$scope module ADDER $end
$var wire 16 R B [15:0] $end
$var wire 1 J CIN $end
$var wire 4 S xor_First [3:0] $end
$var wire 4 T sumFirst [3:0] $end
$var wire 4 U coutFirst [3:0] $end
$var wire 4 V and_xorab_cinFirst [3:0] $end
$var wire 4 W and_abFirst [3:0] $end
$var wire 16 X S [15:0] $end
$var wire 4 Y RealCarry [3:0] $end
$var wire 1 F COUT $end
$var wire 16 Z A [15:0] $end
$var reg 1 [ ONE $end
$var reg 1 \ Zero $end
$scope begin OneParts[1] $end
$var parameter 2 ] j $end
$scope begin oneeeeeee[0] $end
$var parameter 2 ^ i $end
$scope begin genblk1 $end
$upscope $end
$upscope $end
$scope begin oneeeeeee[1] $end
$var parameter 2 _ i $end
$scope begin genblk1 $end
$upscope $end
$upscope $end
$scope begin oneeeeeee[2] $end
$var parameter 3 ` i $end
$scope begin genblk1 $end
$upscope $end
$upscope $end
$scope begin oneeeeeee[3] $end
$var parameter 3 a i $end
$scope begin genblk1 $end
$upscope $end
$upscope $end
$upscope $end
$scope begin OneParts[2] $end
$var parameter 3 b j $end
$scope begin oneeeeeee[0] $end
$var parameter 2 c i $end
$scope begin genblk1 $end
$upscope $end
$upscope $end
$scope begin oneeeeeee[1] $end
$var parameter 2 d i $end
$scope begin genblk1 $end
$upscope $end
$upscope $end
$scope begin oneeeeeee[2] $end
$var parameter 3 e i $end
$scope begin genblk1 $end
$upscope $end
$upscope $end
$scope begin oneeeeeee[3] $end
$var parameter 3 f i $end
$scope begin genblk1 $end
$upscope $end
$upscope $end
$upscope $end
$scope begin OneParts[3] $end
$var parameter 3 g j $end
$scope begin oneeeeeee[0] $end
$var parameter 2 h i $end
$scope begin genblk1 $end
$upscope $end
$upscope $end
$scope begin oneeeeeee[1] $end
$var parameter 2 i i $end
$scope begin genblk1 $end
$upscope $end
$upscope $end
$scope begin oneeeeeee[2] $end
$var parameter 3 j i $end
$scope begin genblk1 $end
$upscope $end
$upscope $end
$scope begin oneeeeeee[3] $end
$var parameter 3 k i $end
$scope begin genblk1 $end
$upscope $end
$upscope $end
$upscope $end
$scope begin ZeroParts[1] $end
$var parameter 2 l j $end
$scope begin zeropppp[0] $end
$var parameter 2 m i $end
$scope begin genblk1 $end
$upscope $end
$upscope $end
$scope begin zeropppp[1] $end
$var parameter 2 n i $end
$scope begin genblk1 $end
$upscope $end
$upscope $end
$scope begin zeropppp[2] $end
$var parameter 3 o i $end
$scope begin genblk1 $end
$upscope $end
$upscope $end
$scope begin zeropppp[3] $end
$var parameter 3 p i $end
$scope begin genblk1 $end
$upscope $end
$upscope $end
$upscope $end
$scope begin ZeroParts[2] $end
$var parameter 3 q j $end
$scope begin zeropppp[0] $end
$var parameter 2 r i $end
$scope begin genblk1 $end
$upscope $end
$upscope $end
$scope begin zeropppp[1] $end
$var parameter 2 s i $end
$scope begin genblk1 $end
$upscope $end
$upscope $end
$scope begin zeropppp[2] $end
$var parameter 3 t i $end
$scope begin genblk1 $end
$upscope $end
$upscope $end
$scope begin zeropppp[3] $end
$var parameter 3 u i $end
$scope begin genblk1 $end
$upscope $end
$upscope $end
$upscope $end
$scope begin ZeroParts[3] $end
$var parameter 3 v j $end
$scope begin zeropppp[0] $end
$var parameter 2 w i $end
$scope begin genblk1 $end
$upscope $end
$upscope $end
$scope begin zeropppp[1] $end
$var parameter 2 x i $end
$scope begin genblk1 $end
$upscope $end
$upscope $end
$scope begin zeropppp[2] $end
$var parameter 3 y i $end
$scope begin genblk1 $end
$upscope $end
$upscope $end
$scope begin zeropppp[3] $end
$var parameter 3 z i $end
$scope begin genblk1 $end
$upscope $end
$upscope $end
$upscope $end
$scope begin firstPart[0] $end
$var parameter 2 { i $end
$scope begin genblk1 $end
$upscope $end
$upscope $end
$scope begin firstPart[1] $end
$var parameter 2 | i $end
$scope begin genblk1 $end
$upscope $end
$upscope $end
$scope begin firstPart[2] $end
$var parameter 3 } i $end
$scope begin genblk1 $end
$upscope $end
$upscope $end
$scope begin firstPart[3] $end
$var parameter 3 ~ i $end
$scope begin genblk1 $end
$upscope $end
$upscope $end
$upscope $end
$scope module SIGNED_SUBTRACTOR $end
$var wire 16 !" B [15:0] $end
$var wire 1 J CIN $end
$var wire 4 "" xor_First [3:0] $end
$var wire 4 #" sumFirst [3:0] $end
$var wire 4 $" coutFirst [3:0] $end
$var wire 4 %" and_xorab_cinFirst [3:0] $end
$var wire 4 &" and_abFirst [3:0] $end
$var wire 16 '" S [15:0] $end
$var wire 4 (" RealCarry [3:0] $end
$var wire 1 G COUT $end
$var wire 16 )" A [15:0] $end
$var reg 1 *" ONE $end
$var reg 1 +" Zero $end
$scope begin OneParts[1] $end
$var parameter 2 ," j $end
$scope begin oneeeeeee[0] $end
$var parameter 2 -" i $end
$scope begin genblk1 $end
$upscope $end
$upscope $end
$scope begin oneeeeeee[1] $end
$var parameter 2 ." i $end
$scope begin genblk1 $end
$upscope $end
$upscope $end
$scope begin oneeeeeee[2] $end
$var parameter 3 /" i $end
$scope begin genblk1 $end
$upscope $end
$upscope $end
$scope begin oneeeeeee[3] $end
$var parameter 3 0" i $end
$scope begin genblk1 $end
$upscope $end
$upscope $end
$upscope $end
$scope begin OneParts[2] $end
$var parameter 3 1" j $end
$scope begin oneeeeeee[0] $end
$var parameter 2 2" i $end
$scope begin genblk1 $end
$upscope $end
$upscope $end
$scope begin oneeeeeee[1] $end
$var parameter 2 3" i $end
$scope begin genblk1 $end
$upscope $end
$upscope $end
$scope begin oneeeeeee[2] $end
$var parameter 3 4" i $end
$scope begin genblk1 $end
$upscope $end
$upscope $end
$scope begin oneeeeeee[3] $end
$var parameter 3 5" i $end
$scope begin genblk1 $end
$upscope $end
$upscope $end
$upscope $end
$scope begin OneParts[3] $end
$var parameter 3 6" j $end
$scope begin oneeeeeee[0] $end
$var parameter 2 7" i $end
$scope begin genblk1 $end
$upscope $end
$upscope $end
$scope begin oneeeeeee[1] $end
$var parameter 2 8" i $end
$scope begin genblk1 $end
$upscope $end
$upscope $end
$scope begin oneeeeeee[2] $end
$var parameter 3 9" i $end
$scope begin genblk1 $end
$upscope $end
$upscope $end
$scope begin oneeeeeee[3] $end
$var parameter 3 :" i $end
$scope begin genblk1 $end
$upscope $end
$upscope $end
$upscope $end
$scope begin ZeroParts[1] $end
$var parameter 2 ;" j $end
$scope begin zeropppp[0] $end
$var parameter 2 <" i $end
$scope begin genblk1 $end
$upscope $end
$upscope $end
$scope begin zeropppp[1] $end
$var parameter 2 =" i $end
$scope begin genblk1 $end
$upscope $end
$upscope $end
$scope begin zeropppp[2] $end
$var parameter 3 >" i $end
$scope begin genblk1 $end
$upscope $end
$upscope $end
$scope begin zeropppp[3] $end
$var parameter 3 ?" i $end
$scope begin genblk1 $end
$upscope $end
$upscope $end
$upscope $end
$scope begin ZeroParts[2] $end
$var parameter 3 @" j $end
$scope begin zeropppp[0] $end
$var parameter 2 A" i $end
$scope begin genblk1 $end
$upscope $end
$upscope $end
$scope begin zeropppp[1] $end
$var parameter 2 B" i $end
$scope begin genblk1 $end
$upscope $end
$upscope $end
$scope begin zeropppp[2] $end
$var parameter 3 C" i $end
$scope begin genblk1 $end
$upscope $end
$upscope $end
$scope begin zeropppp[3] $end
$var parameter 3 D" i $end
$scope begin genblk1 $end
$upscope $end
$upscope $end
$upscope $end
$scope begin ZeroParts[3] $end
$var parameter 3 E" j $end
$scope begin zeropppp[0] $end
$var parameter 2 F" i $end
$scope begin genblk1 $end
$upscope $end
$upscope $end
$scope begin zeropppp[1] $end
$var parameter 2 G" i $end
$scope begin genblk1 $end
$upscope $end
$upscope $end
$scope begin zeropppp[2] $end
$var parameter 3 H" i $end
$scope begin genblk1 $end
$upscope $end
$upscope $end
$scope begin zeropppp[3] $end
$var parameter 3 I" i $end
$scope begin genblk1 $end
$upscope $end
$upscope $end
$upscope $end
$scope begin firstPart[0] $end
$var parameter 2 J" i $end
$scope begin genblk1 $end
$upscope $end
$upscope $end
$scope begin firstPart[1] $end
$var parameter 2 K" i $end
$scope begin genblk1 $end
$upscope $end
$upscope $end
$scope begin firstPart[2] $end
$var parameter 3 L" i $end
$scope begin genblk1 $end
$upscope $end
$upscope $end
$scope begin firstPart[3] $end
$var parameter 3 M" i $end
$scope begin genblk1 $end
$upscope $end
$upscope $end
$upscope $end
$scope module aasd $end
$var wire 16 N" A [15:0] $end
$var wire 16 O" B [15:0] $end
$var wire 1 " clk $end
$var wire 1 Q start $end
$var wire 16 P" Z2 [15:0] $end
$var wire 16 Q" Z1 [15:0] $end
$var wire 16 R" Z0 [15:0] $end
$var wire 8 S" YL [7:0] $end
$var wire 8 T" YH [7:0] $end
$var wire 8 U" XL [7:0] $end
$var wire 8 V" XH [7:0] $end
$var wire 16 W" S3 [15:0] $end
$var wire 8 X" S2 [7:0] $end
$var wire 8 Y" S1 [7:0] $end
$var wire 32 Z" S [31:0] $end
$scope module abaaadad $end
$var wire 8 [" A [7:0] $end
$var wire 8 \" B [7:0] $end
$var wire 1 " clk $end
$var wire 1 Q start $end
$var reg 4 ]" count [3:0] $end
$var reg 16 ^" multiplicand [15:0] $end
$var reg 16 _" multiplier [15:0] $end
$var reg 16 `" out [15:0] $end
$var reg 16 a" product [15:0] $end
$upscope $end
$scope module sdfsfrg $end
$var wire 8 b" A [7:0] $end
$var wire 8 c" B [7:0] $end
$var wire 1 " clk $end
$var wire 1 Q start $end
$var reg 4 d" count [3:0] $end
$var reg 16 e" multiplicand [15:0] $end
$var reg 16 f" multiplier [15:0] $end
$var reg 16 g" out [15:0] $end
$var reg 16 h" product [15:0] $end
$upscope $end
$scope module sdsds333ntyuk $end
$var wire 8 i" A [7:0] $end
$var wire 8 j" B [7:0] $end
$var wire 1 " clk $end
$var wire 1 Q start $end
$var reg 4 k" count [3:0] $end
$var reg 16 l" multiplicand [15:0] $end
$var reg 16 m" multiplier [15:0] $end
$var reg 16 n" out [15:0] $end
$var reg 16 o" product [15:0] $end
$upscope $end
$upscope $end
$scope module dividerModule $end
$var wire 16 p" A [15:0] $end
$var wire 16 q" B [15:0] $end
$var wire 1 " clk $end
$var wire 1 Q start $end
$var reg 32 r" S [31:0] $end
$var reg 16 s" abs_A [15:0] $end
$var reg 16 t" abs_B [15:0] $end
$var reg 5 u" count [4:0] $end
$var reg 16 v" quotient [15:0] $end
$var reg 32 w" remainder [31:0] $end
$var reg 1 x" sign $end
$upscope $end
$upscope $end
$scope module cu $end
$var wire 1 " clk $end
$var wire 16 y" instruction [15:0] $end
$var wire 1 # rst $end
$var wire 3 z" opcode [2:0] $end
$var parameter 32 {" ADDALU $end
$var parameter 32 |" ADDWB $end
$var parameter 32 }" DEC $end
$var parameter 32 ~" DIVALU $end
$var parameter 32 !# DIVWB $end
$var parameter 32 "# IF $end
$var parameter 32 ## LOADALU $end
$var parameter 32 $# LOADMEM $end
$var parameter 32 %# LOADWB $end
$var parameter 32 &# MULALU $end
$var parameter 32 '# MULWB $end
$var parameter 32 (# STOREALU $end
$var parameter 32 )# STOREMEM $end
$var parameter 32 *# SUBALU $end
$var parameter 32 +# SUBWB $end
$var parameter 32 ,# dedfdd $end
$var reg 2 -# ALUOP [1:0] $end
$var reg 1 9 IRpdate $end
$var reg 1 7 alusrc $end
$var reg 1 .# check $end
$var reg 6 /# counter [5:0] $end
$var reg 1 2 memRead $end
$var reg 1 1 memWrite $end
$var reg 7 0# nstate [6:0] $end
$var reg 1 , ready $end
$var reg 1 + regsrc $end
$var reg 7 1# state [6:0] $end
$var reg 1 ) store $end
$var reg 1 ' we $end
$upscope $end
$scope module mem $end
$var wire 16 2# address [15:0] $end
$var wire 1 " clk $end
$var wire 1 2 memRead $end
$var wire 1 1 memWrite $end
$var wire 1 # rst $end
$var wire 16 3# dataIN [15:0] $end
$var reg 16 4# dataOut [15:0] $end
$upscope $end
$scope module regFile $end
$var wire 1 " clk $end
$var wire 2 5# readAdd1 [1:0] $end
$var wire 2 6# readAdd2 [1:0] $end
$var wire 1 # rst $end
$var wire 16 7# wdata [15:0] $end
$var wire 1 ' we $end
$var wire 2 8# writeAdd [1:0] $end
$var reg 16 9# rdata1 [15:0] $end
$var reg 16 :# rdata2 [15:0] $end
$upscope $end
$upscope $end
$upscope $end
$enddefinitions $end
$comment Show the parameter values. $end
$dumpall
b1011 ,#
b101 +#
b100 *#
b1010 )#
b1001 (#
b1101 '#
b1100 &#
b1000 %#
b111 $#
b110 ##
b0 "#
b1111 !#
b1110 ~"
b1 }"
b11 |"
b10 {"
b11 M"
b10 L"
b1 K"
b0 J"
b11 I"
b10 H"
b1 G"
b0 F"
b11 E"
b11 D"
b10 C"
b1 B"
b0 A"
b10 @"
b11 ?"
b10 >"
b1 ="
b0 <"
b1 ;"
b11 :"
b10 9"
b1 8"
b0 7"
b11 6"
b11 5"
b10 4"
b1 3"
b0 2"
b10 1"
b11 0"
b10 /"
b1 ."
b0 -"
b1 ,"
b11 ~
b10 }
b1 |
b0 {
b11 z
b10 y
b1 x
b0 w
b11 v
b11 u
b10 t
b1 s
b0 r
b10 q
b11 p
b10 o
b1 n
b0 m
b1 l
b11 k
b10 j
b1 i
b0 h
b11 g
b11 f
b10 e
b1 d
b0 c
b10 b
b11 a
b10 `
b1 _
b0 ^
b1 ]
$end
#0
$dumpvars
bx :#
bx 9#
bx 8#
bx 7#
bx 6#
bx 5#
bx 4#
bx 3#
b0 2#
b0 1#
b1 0#
b0 /#
0.#
b0 -#
bx z"
bx y"
xx"
bx w"
bx1 v"
bx u"
bx t"
bx0 s"
bx r"
bx q"
bx p"
bx o"
bx n"
bx m"
bx l"
bx k"
bx j"
bx i"
bx h"
bx g"
bx f"
bx e"
bx d"
bx c"
bx b"
bx a"
bx `"
bx _"
bx ^"
bx ]"
bx \"
bx ["
bx Z"
bx Y"
bx X"
bx W"
bx V"
bx U"
bx T"
bx S"
bx R"
bx Q"
bx P"
bx O"
bx N"
0+"
1*"
bx )"
bx ("
bx '"
bx &"
bx0 %"
bx $"
bx #"
bx ""
bx !"
0\
1[
bx Z
bx Y
bx X
bx W
bx0 V
bx U
bx T
bx S
bx R
0Q
bx P
bx O
bx N
bx M
b0 L
bx K
0J
bx I
b0 H
xG
xF
bx E
bx D
bx C
bx B
bx A
bx @
bx ?
bx >
b0 =
bx <
b0 ;
bx :
19
b0 8
07
bx 6
x5
bx 4
bx 3
12
01
bx 0
bx /
bx .
bx -
0,
1+
bx *
0)
bx (
0'
bx &
x%
b0 $
1#
1"
b0 !
$end
#1
b0 3
b0 4#
0"
#2
0+
02
b1 1#
bx11 v"
bx00 s"
1"
0#
#3
0G
05
0F
b0 ("
b0 Y
b0 %"
b0 V
b0 $"
b0 U
b0 &"
b0 W
b0 C
b0 !"
b0 6
b0 ?
b0 R
b0 -
b0 6#
b10 0#
b0 (
b0 7#
b0 *
b0 4
b0 &
b0 8#
b0 .
b0 5#
b0 z"
b0 <
b0 >
b0 y"
0"
#4
x5
xG
xF
bx0 %"
bx0 V
bx ("
bx Y
bx $"
bx U
bx &"
bx W
bx C
bx !"
bx 6
bx ?
bx R
bx 8
bx 2#
bx (
bx 7#
b11 0#
17
09
1+
b10 1#
bx111 v"
bx000 s"
1"
#5
1%
0G
05
0F
b0 ("
b0 Y
b0 (
b0 7#
b0 8
b0 2#
b0 :
b0 K
b0 A
b0 '"
b0 #"
b0 %"
b0 B
b0 X
b0 T
b0 V
b0 $"
b0 U
b0 ""
b0 S
b0 &"
b0 W
b0 C
b0 !"
b0 6
b0 ?
b0 R
b0 /
b0 3#
b0 :#
b0 D
b0 0
b0 I
b0 Z
b0 )"
b0 9#
0"
#6
b0 0#
1,
1'
b11 1#
bx1111 v"
bx0000 s"
1"
#7
0"
#8
b1 8
b1 2#
b1 0#
07
19
0,
12
0'
b0 1#
b1 !
b1 $
b1 =
bx11111 v"
bx00000 s"
1"
#9
b1000111000001010 3
b1000111000001010 4#
0"
#10
b10 0#
0+
02
b1 1#
bx111111 v"
bx000000 s"
1"
#11
0%
b1010 :
b1010 K
b1111111111110110 A
b1111111111110110 '"
b110 #"
b1010 B
b1010 X
b1010 T
b110 ""
b1010 S
b1111111111110110 C
b1111111111110110 !"
b1010 6
b1010 ?
b1010 R
b110 0#
b1000111000001010 (
b1000111000001010 7#
b1010 *
b1010 4
b1 &
b1 8#
b11 .
b11 5#
b100 z"
b1000111000001010 <
b1000111000001010 >
b1000111000001010 y"
0"
#12
b1010 8
b1010 2#
b111 0#
09
12
b110 1#
bx1111111 v"
bx0000000 s"
1"
#13
b10100101 3
b10100101 4#
0"
#14
b1000 0#
b111 1#
bx11111111 v"
bx00000000 s"
1"
#15
b10100101 (
b10100101 7#
b10100101 <
0"
#16
b0 0#
1,
02
1'
b1000 1#
bx111111111 v"
bx000000000 s"
1"
#17
0"
#18
b10 8
b10 2#
b1010 (
b1010 7#
b1 0#
19
1+
0,
12
0'
b10 !
b10 $
b10 =
b0 1#
bx1111111111 v"
bx0000000000 s"
1"
#19
b10100101 (
b10100101 7#
b10100101 :
b10100101 K
b1111111101011011 A
b1111111101011011 '"
b1011 #"
b10100101 B
b10100101 X
b101 T
b1011 ""
b101 S
b1111111101011011 C
b1111111101011011 !"
b10100101 6
b10100101 ?
b10100101 R
b1 -
b1 6#
b10100101 *
b10100101 4
b0 &
b0 8#
b0 .
b0 5#
b0 z"
b10100101 >
b10100101 y"
b1001011000001011 3
b1001011000001011 4#
0"
#20
b10 0#
0+
02
b1 1#
bx11111111111 v"
bx00000000000 s"
1"
#21
b1011 :
b1011 K
b1111111111110101 A
b1111111111110101 '"
b101 #"
b1011 B
b1011 X
b1011 T
b101 ""
b1011 S
b1111111111110101 C
b1111111111110101 !"
b1011 6
b1011 ?
b1011 R
b0 -
b0 6#
b110 0#
b1001011000001011 (
b1001011000001011 7#
b1011 *
b1011 4
b10 &
b10 8#
b11 .
b11 5#
b100 z"
b10100101 /
b10100101 3#
b10100101 :#
b1001011000001011 <
b1001011000001011 >
b1001011000001011 y"
0"
#22
b1011 8
b1011 2#
b111 0#
09
12
b110 1#
bx111111111111 v"
bx000000000000 s"
1"
#23
b10101010 3
b10101010 4#
b0 /
b0 3#
b0 :#
0"
#24
b1000 0#
b111 1#
bx1111111111111 v"
bx0000000000000 s"
1"
#25
b10101010 (
b10101010 7#
b10101010 <
0"
#26
b0 0#
1,
02
1'
b1000 1#
bx11111111111111 v"
bx00000000000000 s"
1"
#27
0"
#28
b11 8
b11 2#
b1011 (
b1011 7#
b1 0#
19
1+
0,
12
0'
b0 1#
b11 !
b11 $
b11 =
bx111111111111111 v"
bx000000000000000 s"
1"
#29
b10101010 (
b10101010 7#
b10101010 :
b10101010 K
b1111111101010110 A
b1111111101010110 '"
b110 #"
b10101010 B
b10101010 X
b1010 T
b110 ""
b1010 S
b1111111101010110 C
b1111111101010110 !"
b10101010 6
b10101010 ?
b10101010 R
b1 -
b1 6#
b10101010 *
b10101010 4
b0 &
b0 8#
b0 .
b0 5#
b0 z"
b1100000000 3
b1100000000 4#
b10101010 >
b10101010 y"
0"
#30
b10 0#
0+
02
b1 1#
b1111111111111111 v"
b0 s"
1"
#31
b1111111100000000 :
b1111111100000000 K
b100000000 A
b100000000 '"
b0 #"
b1111111100000000 B
b1111111100000000 X
b0 T
b0 ""
b0 S
b100000000 C
b100000000 !"
b1111111100000000 6
b1111111100000000 ?
b1111111100000000 R
b10 -
b10 6#
b1100000000 (
b1100000000 7#
b1111111100000000 *
b100000000 4
b1 .
b1 5#
b1100000000 <
b1100000000 >
b1100000000 y"
b10100101 /
b10100101 3#
b10100101 :#
0"
#32
b10100101 :
b10100101 K
b1111111101011011 A
b1111111101011011 '"
b1011 #"
b10100101 B
b10100101 X
b101 T
b1011 ""
b101 S
b1111111101011011 C
b1111111101011011 !"
b10100101 6
b10100101 ?
b10100101 R
b10100101 8
b10100101 2#
b10100101 (
b10100101 7#
b11 0#
17
09
1+
b10 1#
bx w"
1"
#33
b0 %"
b10 Y
b101001111 (
b101001111 7#
b101001111 8
b101001111 2#
b0 V
b101001111 :
b101001111 K
b100 $"
b1111111111111011 A
b1111111111111011 '"
b1011 #"
b0 U
b101001111 B
b101001111 X
b1111 T
b100 &"
b11 ""
b0 W
b1111 S
b1111111101010110 C
b1111111101010110 !"
b10101010 6
b10101010 ?
b10101010 R
b10101010 /
b10101010 3#
b10101010 :#
b1111111101011011 D
b10100101 0
b10100101 I
b10100101 Z
b10100101 )"
b10100101 9#
0"
#34
b0 0#
1,
1'
b11 1#
bx w"
1"
#35
0"
#36
b1111111110100101 (
b1111111110100101 7#
b0 Y
b1111111110100101 :
b1111111110100101 K
b110100101 A
b110100101 '"
b101 #"
b0 $"
b1111111110100101 B
b1111111110100101 X
b101 T
b101 ""
b0 &"
b101 S
b100000000 C
b100000000 !"
b1111111100000000 6
b1111111100000000 ?
b1111111100000000 R
b100 8
b100 2#
b1 0#
07
19
0,
12
0'
b0 1#
b100 !
b100 $
b100 =
bx w"
1"
#37
b10000010000000 3
b10000010000000 4#
0"
#38
b1100000000 (
b1100000000 7#
b10 0#
0+
02
b1 1#
bx w"
1"
#39
1G
b1110 ("
b10 Y
b100100101 :
b100100101 K
b100101 A
b100101 '"
b100100101 B
b100100101 X
b1111111110000000 C
b1111111110000000 !"
b10000000 6
b10000000 ?
b10000000 R
b1 -
b1 6#
b100 0#
b10000010000000 (
b10000010000000 7#
b10000000 *
b10000000 4
b0 .
b0 5#
b1 z"
b10000010000000 <
b10000010000000 >
b10000010000000 y"
0"
#40
0G
b0 ("
b1111111111111011 A
b1111111111111011 '"
b1011 #"
b100 $"
b101001111 B
b101001111 X
b1111 T
b11 ""
b100 &"
b1111 S
05
b1111111111111011 :
b1111111111111011 K
b1111111101010110 C
b1111111101010110 !"
b10101010 6
b10101010 ?
b10101010 R
b1111111111111011 8
b1111111111111011 2#
b1111111111111011 (
b1111111111111011 7#
b101 0#
b1 ;
b1 H
b1 -#
17
09
1+
b100 1#
bx w"
1"
#41
15
1G
b1010 V
b1101 ("
b10101010 (
b10101010 7#
b10101010 8
b10101010 2#
b1 Y
b10101010 :
b10101010 K
b100 %"
b1111 $"
b10101010 A
b10101010 '"
b1010 #"
b1111 U
b111110100 B
b111110100 X
b100 T
b1011 &"
b100 ""
b101 W
b1010 S
b1111111101011011 C
b1111111101011011 !"
b10100101 6
b10100101 ?
b10100101 R
b10100101 /
b10100101 3#
b10100101 :#
b1111111010110001 D
b101001111 0
b101001111 I
b101001111 Z
b101001111 )"
b101001111 9#
0"
#42
b0 0#
1,
1'
b101 1#
bx w"
1"
#43
0"
#44
b0 Y
b1100 ("
b11001111 A
b11001111 '"
b1111 #"
b0 %"
b0 $"
b0 V
b111001111 B
b111001111 X
b1111 T
b0 U
b1111 ""
b0 &"
b1111 S
b0 W
b111001111 (
b111001111 7#
05
b111001111 :
b111001111 K
b1111111110000000 C
b1111111110000000 !"
b10000000 6
b10000000 ?
b10000000 R
b101 8
b101 2#
b1 0#
b0 ;
b0 H
b0 -#
07
19
0,
12
0'
b0 1#
b101 !
b101 $
b101 =
bx w"
1"
#45
1G
b1110 ("
b10 Y
b100101010 (
b100101010 7#
b100101010 :
b100101010 K
b101010 A
b101010 '"
b1010 #"
b100101010 B
b100101010 X
b1010 T
b1010 ""
b1010 S
b1111111101010110 D
b10101010 0
b10101010 I
b10101010 Z
b10101010 )"
b10101010 9#
b0 3
b0 4#
0"
#46
b10000010000000 (
b10000010000000 7#
b100 0#
0+
02
b1 1#
bx w"
1"
#47
0G
b0 ("
b10101010 :
b10101010 K
b0 Y
b10101010 A
b10101010 '"
b10101010 B
b10101010 X
b0 C
b0 !"
b0 6
b0 ?
b0 R
b0 -
b0 6#
b10 0#
b0 (
b0 7#
b0 *
b0 4
b0 z"
b0 <
b0 >
b0 y"
0"
#48
1G
b10 Y
b1111 ("
b101001111 :
b101001111 K
b101 A
b101 '"
b101 #"
b1010 $"
b101001111 B
b101001111 X
b1111 T
b1 ""
b1010 &"
b1111 S
b1111111101011011 C
b1111111101011011 !"
b10100101 6
b10100101 ?
b10100101 R
b101001111 8
b101001111 2#
b101001111 (
b101001111 7#
b11 0#
17
09
1+
b10 1#
bx w"
1"
#49
1G
b101010100 (
b101010100 7#
b101010100 8
b101010100 2#
b1111 ("
b101010100 :
b101010100 K
b11 Y
b1100 %"
b0 A
b0 '"
b0 #"
b1110 $"
b101010100 B
b101010100 X
b100 T
b1010 U
b1100 ""
b10 &"
b0 S
b1010 W
b1111111101010110 C
b1111111101010110 !"
b10101010 6
b10101010 ?
b10101010 R
b10101010 /
b10101010 3#
b10101010 :#
0"
#50
b0 0#
1,
1'
b11 1#
bx w"
1"
#51
0"
#52
0G
b0 ("
b10101010 (
b10101010 7#
b10101010 :
b10101010 K
b0 Y
b0 $"
b0 %"
b10101010 A
b10101010 '"
b1010 #"
b10101010 B
b10101010 X
b1010 T
b0 U
b0 &"
b1010 ""
b1010 S
b0 W
b0 C
b0 !"
b0 6
b0 ?
b0 R
b110 8
b110 2#
b1 0#
07
19
0,
12
0'
b0 1#
b110 !
b110 $
b110 =
bx w"
1"
#53
b101010100 (
b101010100 7#
b101010100 :
b101010100 K
b101010100 A
b101010100 '"
b100 #"
b101010100 B
b101010100 X
b100 T
b100 ""
b100 S
b101010100 /
b101010100 3#
b101010100 :#
b1111111010101100 D
b101010100 0
b101010100 I
b101010100 Z
b101010100 )"
b101010100 9#
b1010011000001100 3
b1010011000001100 4#
0"
#54
b0 (
b0 7#
b10 0#
0+
02
b1 1#
bx w"
1"
#55
1G
b1110 ("
b1 Y
b1000 V
b101100000 :
b101100000 K
b101001000 A
b101001000 '"
b1000 #"
b100 $"
b1100 U
b101100000 B
b101100000 X
b0 T
b0 ""
b100 &"
b100 W
b1000 S
b1111111111110100 C
b1111111111110100 !"
b1100 6
b1100 ?
b1100 R
b1001 0#
b1010011000001100 (
b1010011000001100 7#
b1100 *
b1100 4
b11 .
b11 5#
b101 z"
b1010011000001100 <
b1010011000001100 >
b1010011000001100 y"
0"
#56
b101100000 8
b101100000 2#
b1010 0#
1)
09
b1001 1#
bx w"
1"
#57
0G
b0 ("
b0 Y
b0 V
b1100 8
b1100 2#
b1100 :
b1100 K
b0 $"
b1111111111110100 A
b1111111111110100 '"
b100 #"
b0 U
b1100 B
b1100 X
b1100 T
b0 &"
b100 ""
b0 W
b1100 S
b0 D
b0 0
b0 I
b0 Z
b0 )"
b0 9#
0"
#58
b0 0#
1,
11
b1010 1#
bx w"
1"
#59
0"
#60
b111 8
b111 2#
b1100 (
b1100 7#
b1 0#
0)
19
1+
0,
12
01
b0 1#
b111 !
b111 $
b111 =
bx w"
1"
#61
b101101100001100 3
b101101100001100 4#
0"
#62
b1010011000001100 (
b1010011000001100 7#
b1001 0#
0+
02
b1 1#
bx w"
1"
#63
b1111111100001100 :
b1111111100001100 K
b11110100 A
b11110100 '"
b1111111100001100 B
b1111111100001100 X
b11110100 C
b11110100 !"
b1111111100001100 6
b1111111100001100 ?
b1111111100001100 R
b10 -
b10 6#
b1100 0#
b101101100001100 (
b101101100001100 7#
b1111111100001100 *
b100001100 4
b11 &
b11 8#
b1 .
b1 5#
b10 z"
b101101100001100 <
b101101100001100 >
b101101100001100 y"
0"
